{       "esURL": "http://localhost:9200",
        "lastRunList": [
                {
                        "jobName": "bcbsne-dental-wait",
                        "startTime": "2017-09-25T12:55:00.111ZEDT",
                        "endTime": "2017-09-28T01:06:00.111ZEDT"
                }
        ]
}
